…
    ## # A tibble: 3 x 1
    ##   bacia      
    ##   <chr>      
    ## 1 Rio Madeira
    ## 2 Rio Mamoré 
    ## 3 Rio Guaporé

``` r
dados_prm %>% 
  select(ordem, peso_g)
```

    ## # A tibble: 99,370 x 2
    ##    ordem         peso_g
    ##    <chr>          <dbl>
    ##  1 Siluriformes      35
    ##  2 Siluriformes      35
    ##  3 Siluriformes      25
    ##  4 Characiformes    265
    ##  5 Siluriformes     160
    ##  6 Characiformes    130
    ##  7 Siluriformes      25
    ##  8 Characiformes     65
    ##  9 Cichliformes      15
    ## 10 Characiformes    250
    ## # ... with 99,360 more rows
…
``` r
dados_ch %>% view()
```

``` r
dados_ch %>% 
  group_by(rendimento_liquido) %>% 
  summarise(n = n()) %>% 
  arrange(desc(rendimento_liquido))
```

    ## # A tibble: 1,205 x 2
    ##    rendimento_liquido                     n
    ##    <chr>                              <int>
    ##  1 Juiz do Trabalho Substituto            4
    ##  2 JUIZ DE DIREITO DE ENTRANCIA FINAL     1
    ##  3 9921.44                                1
    ##  4 97975.97                               1
    ##  5 9790.84                                1
    ##  6 9523.34                                1
    ##  7 93632.84                               1
    ##  8 93092.56                               1
    ##  9 926.32                                 3
    ## 10 9243.80                                1
    ## # ... with 1,195 more rows
…
    ## # A tibble: 1 x 1
    ##       n
    ##   <int>
    ## 1  1790

**b**</br> Diates dos procedimentos realizados abaixo o tribunal
regional do trabalho de setima região (CE) é o que possui um maior valor
de variabilidade.

``` r
dados_ch %>% 
  distinct(tribunal)
```

    ## # A tibble: 24 x 1
    ##    tribunal                                                                     
    ##    <chr>                                                                        
    ##  1 "Superior Tribunal de Justiça"                                               
    ##  2 "Superior Tribunal Militar"                                                  
    ##  3 "Conselho Nacional de Justiça"                                               
    ##  4 "Tribunal Superior do Trabalho / Conselho Superior da Justiça do Trabalho"   
    ##  5 "Tribunal Superior Eleitoral"                                                
    ##  6 "Conselho da Justiça Federal"                                                
    ##  7 "Tribunal Regional Federal da 1a Região"                                     
    ##  8 "JUIZADO ESPECIAL CIVEL, CRIMINAL E DA FAZENDA PUBLICA DA COMARCA DE LARANJA~
    ##  9 "Tribunal Regional Eleitoral do Rio de Janeiro"                              
    ## 10  <NA>                                                                        
    ## # ... with 14 more rows
…
    ## Warning in mean.default(rendimento_liquido): argument is not numeric or logical:
    ## returning NA

    ## Warning in mean.default(rendimento_liquido): argument is not numeric or logical:
    ## returning NA

    ## Warning in mean.default(rendimento_liquido): argument is not numeric or logical:
    ## returning NA

    ## Warning in mean.default(rendimento_liquido): argument is not numeric or logical:
    ## returning NA

    ## # A tibble: 23 x 2
    ##    tribunal                                                     media_rendimento
    ##  * <chr>                                                                   <dbl>
    ##  1 "Auxiliar Fixo - 14a.Vara do Trab.de Belo Horizonte,31a.Var~               NA
    ##  2 "Auxiliar Fixo - 1a.Vara do Trab.de Juiz de Fora,2a.Vara do~               NA
    ##  3 "Auxiliar Fixo - 20a.Vara do Trab.de Belo Horizonte,25a.Var~               NA
    ##  4 "Auxiliar Fixo - 20a.Vara do Trab.de Belo Horizonte,25a.Var~               NA
    ##  5 "Conselho da Justiça Federal"                                              NA
    ##  6 "Conselho Nacional de Justiça"                                             NA
    ##  7 "JUIZADO ESPECIAL CIVEL, CRIMINAL E DA FAZENDA PUBLICA DA C~               NA
    ##  8 "Superior Tribunal de Justiça"                                             NA
    ##  9 "Superior Tribunal Militar"                                                NA
    ## 10 "Tribunal Regional do Trabalho da 1ª Região"                               NA
    ## # ... with 13 more rows
…
    ## Warning in var(if (is.vector(x) || is.factor(x)) x else as.double(x), na.rm =
    ## na.rm): NAs introduzidos por coerção

    ## Warning in var(if (is.vector(x) || is.factor(x)) x else as.double(x), na.rm =
    ## na.rm): NAs introduzidos por coerção

    ## Warning in var(if (is.vector(x) || is.factor(x)) x else as.double(x), na.rm =
    ## na.rm): NAs introduzidos por coerção

    ## Warning in var(if (is.vector(x) || is.factor(x)) x else as.double(x), na.rm =
    ## na.rm): NAs introduzidos por coerção

    ## # A tibble: 23 x 2
    ##    tribunal                                         dp_rendimento
    ##    <chr>                                                    <int>
    ##  1 Tribunal Regional do Trabalho da 2ª Região                 808
    ##  2 Tribunal Regional do Trabalho da 1ª Região                 443
    ##  3 Tribunal Regional Eleitoral do Rio Grande do Sul           205
    ##  4 Tribunal Regional Federal da 1a Região                     184
    ##  5 Tribunal Regional Eleitoral do Rio de Janeiro              182
    ##  6 Tribunal Regional Eleitoral de Santa Catarina              146
    ##  7 Superior Tribunal de Justiça                                86
    ##  8 Tribunal Regional Eleitoral de Tocantins                    56
    ##  9 Tribunal Regional Eleitoral de Sergipe                      55
    ## 10 Superior Tribunal Militar                                   54
    ## # ... with 13 more rows
…
    ## Warning in mean.default(rendimento_liquido): argument is not numeric or logical:
    ## returning NA

    ## Warning in mean.default(rendimento_liquido): argument is not numeric or logical:
    ## returning NA

    ## Warning in mean.default(rendimento_liquido): argument is not numeric or logical:
    ## returning NA

    ## Warning in mean.default(rendimento_liquido): argument is not numeric or logical:
    ## returning NA

    ## # A tibble: 23 x 2
    ##    tribunal                                                                   cv
    ##  * <chr>                                                                   <dbl>
    ##  1 "Auxiliar Fixo - 14a.Vara do Trab.de Belo Horizonte,31a.Vara do Trab.d~    NA
    ##  2 "Auxiliar Fixo - 1a.Vara do Trab.de Juiz de Fora,2a.Vara do Trab.de Ju~    NA
    ##  3 "Auxiliar Fixo - 20a.Vara do Trab.de Belo Horizonte,25a.Vara do Trab.d~    NA
    ##  4 "Auxiliar Fixo - 20a.Vara do Trab.de Belo Horizonte,25a.Vara do Trab.d~    NA
    ##  5 "Conselho da Justiça Federal"                                              NA
    ##  6 "Conselho Nacional de Justiça"                                             NA
    ##  7 "JUIZADO ESPECIAL CIVEL, CRIMINAL E DA FAZENDA PUBLICA DA COMARCA DE L~    NA
    ##  8 "Superior Tribunal de Justiça"                                             NA
    ##  9 "Superior Tribunal Militar"                                                NA
    ## 10 "Tribunal Regional do Trabalho da 1ª Região"                               NA
    ## # ... with 13 more rows
…
    ## Warning in mean.default(rendimento_liquido): argument is not numeric or logical:
    ## returning NA

    ## Warning in mean.default(rendimento_liquido): argument is not numeric or logical:
    ## returning NA

    ## Warning in mean.default(rendimento_liquido): argument is not numeric or logical:
    ## returning NA

    ## Warning in mean.default(rendimento_liquido): argument is not numeric or logical:
    ## returning NA

    ## # A tibble: 23 x 2
    ##    tribunal                                                        cv_rendimento
    ##    <chr>                                                                   <dbl>
    ##  1 "Auxiliar Fixo - 14a.Vara do Trab.de Belo Horizonte,31a.Vara d~            NA
    ##  2 "Auxiliar Fixo - 1a.Vara do Trab.de Juiz de Fora,2a.Vara do Tr~            NA
    ##  3 "Auxiliar Fixo - 20a.Vara do Trab.de Belo Horizonte,25a.Vara d~            NA
    ##  4 "Auxiliar Fixo - 20a.Vara do Trab.de Belo Horizonte,25a.Vara d~            NA
    ##  5 "Conselho da Justiça Federal"                                              NA
    ##  6 "Conselho Nacional de Justiça"                                             NA
    ##  7 "JUIZADO ESPECIAL CIVEL, CRIMINAL E DA FAZENDA PUBLICA DA COMA~            NA
    ##  8 "Superior Tribunal de Justiça"                                             NA
    ##  9 "Superior Tribunal Militar"                                                NA
    ## 10 "Tribunal Regional do Trabalho da 1ª Região"                               NA
    ## # ... with 13 more rows
…
``` r
dados_cp %>% 
  group_by(uf_busca) %>%
  summarise(
    y = n()
  ) %>% 
  arrange(desc(y))
```

    ## # A tibble: 28 x 2
    ##    uf_busca     y
    ##    <chr>    <int>
    ##  1 SP       11501
    ##  2 MG        4128
    ##  3 PR        3821
    ##  4 RS        3060
    ##  5 BA        2496
    ##  6 SC        2160
    ##  7 RJ        1425
    ##  8 GO        1238
    ##  9 PA        1192
    ## 10 PE        1148
    ## # ... with 18 more rows

``` r
dados_cp %>% 
  distinct(uf_busca)
```

    ## # A tibble: 28 x 1
    ##    uf_busca
    ##    <chr>   
    ##  1 MS      
    ##  2 CE      
    ##  3 SP      
    ##  4 AC      
    ##  5 MG      
    ##  6 MT      
    ##  7 BA      
    ##  8 RJ      
    ##  9 PA      
    ## 10 PR      
    ## # ... with 18 more rows
…
